{
    "name": "dnd5e_fr-FR",
    "title": "fr-FR - DND5 System",
    "description": "<p>Add French (FRANCE) language to system dnd5e Fvtt</p><p>Traduction des clés du system DD5 [Atropos]</p><p>Si vous installez le module Babele, vous pouvez accéder aux traductions des compendiums [texte du SRD : site aidedd.org]</p>",
    "version": "0.87.1",
    "minimumCoreVersion" : "0.5.0",
    "compatibleCoreVersion": "0.5.5",
    "author": "Baktov, Rwanoux, Olirin, thorni",
  	"gridDistance": 1.5,
  	"gridUnits": "m",
      
        
    "scripts": [
    	"./babele-register.js"
    ],
    "styles": [],
    "packs": [
      {
       "name": "descriptifsdesclasses",
       "label": "Descriptifs des Classes (AideDD)",
       "path": "packs/descriptifsdesclasses.db",
       "entity": "Item",
       "module": "dnd5e_fr-FR",
       "package": "dnd5e_fr-FR"
      } 
   ],
    
    "languages": [
      {
        "lang": "fr",
        "name": "French (FRANCE)",
        "path": "fr.json"
      }
    ],
    
    "url": "https://gitlab.com/baktov.sugar/foundryvtt-dnd5e-lang-fr-fr",
	  "manifest": "https://gitlab.com/baktov.sugar/foundryvtt-dnd5e-lang-fr-fr/raw/master/dnd5e_fr-FR/module.json",
	  "download": "https://gitlab.com/baktov.sugar/foundryvtt-dnd5e-lang-fr-fr/-/jobs/artifacts/master/raw/dnd5e_fr-FR.zip?job=build"
  }
  
